<?xml version="1.0" standalone="no"?>
<!DOCTYPE svg PUBLIC "-//W3C//DTD SVG 20010904//EN"
 "http://www.w3.org/TR/2001/REC-SVG-20010904/DTD/svg10.dtd">
<svg version="1.0" xmlns="http://www.w3.org/2000/svg"
 width="1352.000000pt" height="1352.000000pt" viewBox="0 0 1352.000000 1352.000000"
 preserveAspectRatio="xMidYMid meet">
<metadata>
Created by potrace 1.14, written by Peter Selinger 2001-2017
</metadata>
<g transform="translate(0.000000,1352.000000) scale(0.100000,-0.100000)"
fill="#000000" stroke="none">
<path d="M259 10395 c-4 -3 -19 -8 -34 -11 -16 -3 -41 -14 -56 -24 -15 -11
-31 -20 -36 -20 -15 0 -73 -70 -101 -123 l-27 -52 -3 -3386 c-1 -2444 1 -3395
9 -3420 32 -98 88 -166 174 -209 47 -24 60 -25 248 -28 164 -3 207 -1 249 13
68 22 120 58 163 113 69 88 65 7 65 1438 0 861 4 1295 10 1299 6 4 10 12 8 18
-3 21 28 80 65 122 84 97 238 134 357 87 26 -10 112 -72 141 -101 9 -9 36 -32
60 -53 24 -20 53 -44 65 -55 12 -10 45 -38 73 -63 29 -25 71 -62 94 -83 23
-21 58 -50 76 -65 19 -15 46 -38 60 -51 15 -13 87 -76 161 -139 74 -64 140
-120 145 -126 6 -6 41 -38 80 -71 98 -84 126 -108 139 -120 6 -5 40 -35 76
-65 66 -56 99 -85 150 -131 16 -14 50 -44 76 -65 26 -21 54 -46 63 -54 9 -9
47 -43 86 -75 38 -33 89 -78 113 -100 24 -22 50 -43 57 -48 8 -4 31 -24 53
-45 22 -20 61 -55 88 -77 26 -22 60 -51 75 -65 15 -14 45 -39 66 -57 21 -17
47 -40 58 -50 11 -10 39 -34 61 -53 22 -19 67 -58 100 -86 57 -50 96 -84 218
-189 32 -27 71 -62 86 -76 16 -14 50 -44 76 -65 25 -21 56 -48 68 -59 12 -11
51 -45 86 -75 35 -30 74 -64 86 -75 12 -11 46 -40 75 -65 65 -55 148 -127 171
-149 9 -9 31 -27 49 -41 17 -14 44 -36 59 -50 15 -14 54 -47 86 -75 32 -27 65
-57 74 -65 9 -8 45 -40 80 -70 36 -30 74 -63 84 -72 11 -10 24 -18 28 -18 5 0
20 -8 35 -17 14 -10 35 -20 47 -23 12 -3 145 -5 297 -5 271 0 276 0 322 24
128 66 190 173 182 315 -5 107 -42 167 -171 276 -26 22 -61 53 -213 185 -19
17 -42 37 -51 45 -8 8 -31 28 -50 44 -31 26 -137 118 -196 171 -12 11 -44 38
-70 60 -27 22 -66 56 -89 77 -22 20 -83 73 -135 119 -52 45 -111 95 -130 112
-19 17 -55 49 -80 71 -25 23 -70 62 -100 88 -83 71 -92 79 -156 135 -32 28
-68 60 -80 70 -12 10 -50 43 -85 74 -35 31 -140 123 -234 204 -93 81 -186 161
-205 179 -19 17 -84 74 -145 126 -60 52 -117 102 -125 110 -9 8 -42 38 -74 65
-32 28 -64 55 -70 60 -27 24 -153 133 -174 151 -13 10 -40 35 -61 54 -20 19
-56 51 -80 70 -23 19 -55 46 -70 60 -51 47 -106 95 -171 150 -36 30 -74 64
-86 75 -11 11 -45 40 -75 65 -112 94 -188 175 -210 224 -40 91 -31 217 21 301
11 18 61 70 112 116 50 46 101 93 112 104 12 11 61 56 110 100 49 44 109 98
132 120 24 22 58 54 77 70 48 42 204 184 243 220 17 17 62 57 99 90 37 33 84
76 104 95 21 19 60 55 87 79 27 24 76 69 110 100 33 31 98 90 144 131 46 41
98 89 115 105 18 17 61 55 94 85 34 30 83 75 110 100 26 25 83 77 126 115 194
174 254 236 259 268 1 7 5 17 9 24 13 21 23 128 15 167 -18 88 -93 192 -159
222 -13 6 -36 17 -51 24 -15 7 -66 13 -113 14 -47 1 -85 5 -85 9 0 5 -5 5 -12
1 -6 -4 -91 -8 -187 -9 -170 -1 -222 -7 -248 -28 -7 -5 -13 -6 -13 -2 0 4 -18
-6 -39 -22 -36 -26 -71 -58 -216 -192 -28 -25 -90 -82 -139 -126 -49 -44 -104
-93 -121 -110 -18 -16 -68 -62 -112 -101 -43 -40 -92 -85 -109 -100 -17 -16
-68 -63 -114 -104 -46 -41 -98 -88 -116 -105 -17 -16 -51 -48 -75 -70 -24 -21
-91 -82 -149 -135 -57 -52 -123 -111 -145 -131 -71 -64 -92 -83 -185 -169
-117 -107 -121 -111 -216 -196 -43 -40 -91 -83 -105 -95 -14 -13 -67 -62 -119
-109 -51 -47 -112 -102 -134 -124 -108 -102 -158 -127 -261 -132 -56 -2 -89 1
-108 11 -15 8 -30 14 -32 14 -3 0 -20 8 -37 17 -58 30 -112 96 -141 173 -15
40 -16 159 -17 1375 0 732 -2 1345 -5 1363 -11 88 -84 183 -175 230 -54 28
-58 28 -260 31 -113 2 -208 1 -211 -3z"/>
<path d="M6230 10388 c-106 -46 -161 -93 -196 -166 -24 -49 -27 -66 -28 -139
-1 -35 -3 -63 -6 -63 -3 0 -4 -26 -3 -58 4 -131 4 -172 4 -272 0 -58 0 -112 0
-120 0 -8 0 -53 0 -100 0 -47 0 -92 0 -100 0 -8 0 -107 0 -220 0 -113 0 -212
0 -220 0 -8 0 -53 0 -100 0 -47 0 -92 0 -100 0 -8 0 -107 0 -220 0 -113 0
-212 0 -220 1 -8 0 -49 -1 -90 -2 -132 25 -215 90 -280 26 -26 90 -73 90 -66
0 4 11 -1 25 -10 14 -9 25 -13 25 -9 0 4 6 3 13 -3 7 -6 93 -9 217 -8 203 1
206 1 262 29 72 35 120 83 155 155 l28 57 2 550 c1 303 4 574 7 604 13 123
126 243 249 265 40 7 2772 9 2862 2 151 -12 243 -24 345 -46 25 -5 56 -12 70
-14 40 -8 62 -13 110 -27 25 -7 47 -13 50 -14 33 -8 130 -38 145 -45 11 -5 58
-23 104 -41 101 -38 302 -136 377 -184 30 -19 56 -35 59 -35 8 0 211 -143 260
-183 86 -71 95 -79 214 -197 117 -115 211 -216 211 -225 0 -3 19 -29 43 -58
54 -67 177 -251 177 -266 0 -6 3 -11 8 -11 11 0 142 -263 182 -365 51 -131 74
-199 72 -209 -2 -4 2 -13 7 -20 5 -6 12 -24 14 -41 3 -16 11 -47 17 -69 18
-59 24 -90 49 -236 33 -193 46 -499 27 -670 -4 -36 -9 -85 -11 -109 -5 -51
-24 -162 -40 -231 -3 -14 -8 -38 -11 -55 -6 -37 -33 -133 -43 -160 -5 -11 -18
-49 -29 -85 -36 -110 -57 -165 -64 -168 -5 -2 -8 -10 -8 -18 0 -36 -203 -414
-257 -479 -5 -5 -19 -26 -33 -45 -101 -145 -257 -321 -400 -449 -81 -73 -104
-91 -195 -160 -22 -17 -44 -34 -50 -39 -84 -65 -535 -315 -535 -296 0 2 -12
-2 -27 -9 -30 -15 -248 -90 -298 -103 -38 -9 -37 -9 -118 -28 -72 -17 -88 -20
-187 -35 -210 -32 -232 -33 -1690 -33 -1269 0 -1389 2 -1435 17 -27 9 -61 24
-74 32 -41 26 -91 75 -91 89 0 7 -6 17 -12 21 -7 4 -21 30 -30 56 -16 43 -17
104 -18 575 -1 290 -3 543 -4 562 -11 116 -80 215 -184 262 -62 28 -80 30
-247 32 -230 2 -289 -12 -375 -90 -35 -31 -78 -103 -88 -144 -4 -20 -13 -101
-13 -120 2 -121 1 -183 -3 -188 -2 -4 -1 -26 4 -50 4 -24 3 -42 -2 -42 -5 0
-7 -4 -4 -9 6 -9 10 -114 6 -136 -1 -5 -1 -44 0 -85 1 -80 1 -80 1 -240 0 -58
0 -112 0 -120 0 -8 0 -53 0 -100 0 -47 0 -92 0 -100 0 -8 0 -107 0 -220 0
-113 0 -212 0 -220 0 -8 0 -53 0 -100 0 -47 -1 -103 0 -125 0 -22 0 -69 -1
-105 0 -69 1 -81 19 -146 22 -82 125 -181 210 -202 38 -10 3819 -9 3926 1 110
10 152 15 185 21 14 2 43 7 65 10 34 4 101 16 223 41 13 2 32 7 42 10 10 3 28
8 39 10 46 10 58 13 101 25 54 14 197 58 225 69 11 5 81 32 155 61 158 62 366
163 499 244 51 31 97 56 101 56 5 0 10 3 12 8 2 4 37 29 78 57 74 49 190 134
200 145 3 3 23 19 45 36 22 16 52 40 67 54 14 14 50 46 80 72 138 119 308 302
448 479 42 52 188 262 202 289 7 14 15 27 18 30 21 20 207 361 209 383 0 4 7
20 15 35 28 55 130 317 141 362 2 8 10 34 19 58 8 23 15 43 15 45 -1 1 4 20
10 42 6 22 11 43 11 47 1 4 6 22 11 40 12 39 11 37 38 163 11 55 23 116 25
135 3 19 7 44 9 55 3 11 8 52 12 90 4 39 9 78 11 87 21 118 21 629 -1 748 -2
14 -7 52 -11 85 -3 33 -8 69 -10 80 -2 11 -6 31 -9 45 -37 207 -55 288 -85
391 -30 102 -82 262 -89 274 -3 6 -6 15 -7 20 -10 52 -170 394 -236 503 -21
34 -38 67 -38 73 0 6 -6 17 -12 24 -28 31 -38 44 -38 51 0 6 -131 203 -156
233 -7 9 -44 56 -82 104 -116 146 -241 281 -398 427 -68 63 -253 213 -307 250
-20 14 -37 28 -37 33 0 4 -4 7 -9 7 -6 0 -40 21 -78 47 -80 55 -261 163 -273
163 -5 0 -10 3 -12 8 -4 10 -205 108 -318 154 -52 21 -104 43 -115 48 -11 5
-63 24 -115 41 -118 38 -124 40 -127 40 -2 0 -22 7 -45 15 -24 9 -52 17 -62
20 -43 8 -163 37 -191 44 -16 5 -50 12 -75 15 -25 4 -54 9 -65 11 -11 2 -33 6
-50 9 -16 3 -41 7 -55 10 -14 2 -56 7 -93 10 -37 4 -78 9 -90 13 -41 12 -3920
12 -3947 0z"/>
<path d="M8030 8762 c0 -4 -33 -7 -73 -7 -126 -1 -232 -69 -285 -183 l-27 -57
0 -935 0 -935 27 -56 c35 -71 87 -122 157 -156 55 -26 61 -27 251 -28 196 -1
242 5 306 38 48 26 106 89 133 147 l26 55 5 485 c5 472 6 486 27 530 31 66 84
122 139 150 27 13 54 25 59 27 6 1 21 4 35 8 28 6 1070 7 1110 1 14 -2 45 -7
70 -11 87 -13 249 -64 277 -87 7 -6 13 -7 13 -3 0 5 8 2 18 -7 9 -8 38 -25 65
-39 26 -13 47 -27 47 -31 0 -5 5 -8 11 -8 29 0 190 -152 260 -246 24 -33 48
-62 54 -66 7 -5 7 -8 0 -8 -6 0 -6 -3 0 -8 15 -10 80 -139 95 -187 7 -22 15
-44 19 -50 3 -5 6 -14 7 -20 1 -5 7 -30 14 -55 22 -87 24 -116 24 -260 0 -150
-3 -184 -24 -260 -7 -25 -12 -47 -12 -50 -3 -33 -90 -222 -133 -285 -70 -104
-245 -285 -275 -285 -5 0 -10 -4 -10 -9 0 -5 -9 -13 -20 -16 -11 -3 -26 -12
-33 -18 -20 -19 -68 -44 -157 -82 -71 -31 -122 -46 -236 -70 -16 -4 -96 -9
-179 -11 -277 -8 -287 -9 -346 -36 -94 -43 -174 -147 -182 -236 -2 -22 -6 -43
-9 -48 -3 -5 -2 -18 2 -29 4 -11 4 -29 0 -40 -4 -11 -4 -29 0 -40 4 -11 4 -32
-1 -47 -4 -16 -5 -28 -1 -28 4 0 7 -13 7 -30 0 -16 -4 -30 -8 -30 -5 0 -6 -4
-2 -9 3 -5 8 -31 11 -58 11 -101 92 -216 171 -245 18 -7 33 -15 33 -18 0 -8 5
-9 120 -15 52 -3 101 -7 108 -10 6 -2 12 -1 12 3 0 4 55 7 123 8 67 0 154 5
192 9 39 5 80 9 93 9 12 1 22 3 22 6 0 3 12 7 26 8 14 1 62 11 107 23 45 11
89 22 97 24 73 16 300 117 430 190 41 23 178 113 190 125 3 3 28 23 55 44 76
61 220 203 283 281 31 39 59 72 62 75 28 26 200 311 200 330 0 5 9 24 19 42
19 33 89 214 98 253 2 11 5 25 6 30 2 6 6 16 10 23 5 6 6 12 3 12 -2 0 0 15 5
33 14 44 22 85 34 162 2 11 7 43 11 70 10 65 10 425 0 490 -13 83 -15 98 -26
150 -6 28 -13 64 -16 80 -9 48 -65 219 -75 229 -5 6 -9 17 -9 26 0 23 -116
254 -161 323 -22 32 -39 61 -39 63 0 3 -4 10 -10 17 -5 7 -37 48 -71 92 -62
81 -266 290 -328 335 -19 14 -39 30 -45 35 -78 72 -360 225 -516 280 -99 35
-132 46 -137 46 -2 0 -17 5 -35 10 -18 6 -42 12 -53 14 -11 3 -31 7 -45 11
-14 3 -43 8 -65 10 -22 3 -47 8 -55 11 -35 13 -130 15 -834 18 -406 2 -745 6
-752 9 -8 3 -14 2 -14 -2 0 -8 -443 -7 -465 2 -8 3 -15 2 -15 -2z"/>
<path d="M6390 7313 c-40 -6 -142 -44 -182 -69 -90 -57 -174 -178 -197 -284
-14 -65 -7 -197 15 -250 47 -117 131 -208 239 -259 170 -80 370 -45 504 88 51
51 106 135 116 178 3 10 8 34 13 53 14 54 7 179 -13 235 -9 28 -30 69 -46 93
-16 24 -29 45 -29 48 0 15 -125 116 -133 107 -4 -3 -7 -2 -7 4 0 28 -193 67
-280 56z"/>
<path d="M8028 5665 c-2 -2 -18 -5 -36 -7 -18 -1 -32 -6 -32 -10 0 -4 -11 -8
-24 -8 -14 0 -28 -5 -31 -10 -4 -6 -21 -16 -38 -24 -43 -18 -127 -101 -160
-156 -42 -72 -58 -129 -62 -213 -8 -188 87 -349 256 -430 129 -62 284 -58 418
13 86 46 176 159 216 275 14 38 14 183 1 233 -38 142 -153 268 -291 317 -45
15 -206 31 -217 20z"/>
</g>
</svg>
