<svg width="169" height="91" viewBox="0 0 169 91" fill="none" xmlns="http://www.w3.org/2000/svg">
<g clip-path="url(#clip0_5_128)">
<path d="M123.053 0H78.9966C76.7874 0 74.9966 1.79086 74.9966 4V28.2292C74.9966 30.4383 76.7874 32.2292 78.9966 32.2292H80.6841L85.3991 39.9854C86.0031 40.9791 86.1448 42.1865 85.7873 43.293L80.6841 59.0868H78.9966C76.7874 59.0868 74.9966 60.8777 74.9966 63.0868V79.6462V87C74.9966 89.2091 76.7874 91 78.9966 91H123.053C148.143 91 168.553 70.589 168.553 45.5C168.553 20.411 148.143 0 123.053 0ZM157.2 45.5C157.2 64.3278 141.881 79.6462 123.053 79.6462H90.3675C88.1599 79.6462 86.3697 77.8578 86.3675 75.6503L86.3545 63.0827C86.3522 60.8752 84.562 59.0868 82.3545 59.0868H80.6841L85.7873 43.293C86.1448 42.1865 86.0031 40.9791 85.3991 39.9854L80.6841 32.2292H82.3504C84.5595 32.2292 86.3504 30.4383 86.3504 28.2292V15.3538C86.3504 13.1447 88.1412 11.3538 90.3504 11.3538H123.053C141.881 11.3538 157.2 26.6722 157.2 45.5Z" fill="black"/>
<path d="M95.5156 64.8099C95.5156 67.9452 98.0573 70.4868 101.193 70.4868C104.328 70.4868 106.869 67.9452 106.869 64.8099C106.869 61.6747 104.328 59.133 101.193 59.133C98.0573 59.133 95.5156 61.6747 95.5156 64.8099Z" fill="black"/>
<path d="M74.9966 44.2255C74.9966 47.3608 77.5382 49.9024 80.6735 49.9024C83.8087 49.9024 86.3504 47.3608 86.3504 44.2255C86.3504 41.0902 83.8087 38.5486 80.6735 38.5486C77.5382 38.5486 74.9966 41.0902 74.9966 44.2255Z" fill="black"/>
<path d="M122.647 20.5093H99.5156C97.3065 20.5093 95.5156 22.3002 95.5156 24.5093V45.9698C95.5156 48.1789 97.3065 49.9698 99.5156 49.9698H102.869C105.079 49.9698 106.869 48.1789 106.869 45.9698V35.8631C106.869 33.654 108.66 31.8631 110.869 31.8631H122.647C130.159 31.8631 136.27 37.9835 136.27 45.5077C136.27 53.0203 130.159 59.133 122.647 59.133H120.011C117.802 59.133 116.011 60.9239 116.011 63.133V66.4868C116.011 68.696 117.802 70.4868 120.011 70.4868H122.647C136.419 70.4868 147.624 59.2815 147.624 45.5077C147.624 31.7243 136.419 20.5093 122.647 20.5093Z" fill="black"/>
</g>
<path d="M63.2774 91C62.3151 91 61.3851 90.6531 60.6579 90.0229L18.0066 53.0639C15.4162 50.8193 11.3871 52.6593 11.3871 56.0868V87C11.3871 89.2091 9.5962 91 7.38706 91H4C1.79086 91 0 89.2091 0 87V4C0 1.79086 1.79086 0 4 0L7.38706 0C9.5962 0 11.3871 1.79086 11.3871 4V36.2531C11.3871 39.727 15.5111 41.5496 18.0799 39.2109L44.0393 15.5769C44.7758 14.9064 45.7361 14.5347 46.7321 14.5347H51.9001C55.5562 14.5347 57.2961 19.0351 54.5908 21.4945L30.8128 43.1108C29.0429 44.7198 29.0714 47.5121 30.8738 49.0846L70.8753 83.986C73.6605 86.416 71.9418 91 68.2456 91H63.2774Z" fill="black"/>
<defs>
<clipPath id="clip0_5_128">
<rect width="93.5569" height="91" fill="white" transform="translate(74.9966)"/>
</clipPath>
</defs>
</svg>
