{
  "name": "hoangkimduc.gitlab.io",
  "short_name": "hoangkimduc.gitlab.io",
  "description": "## Project setup ``` yarn install ```",
  "icons": [],
  "start_url": "/?standalone=true",
  "display": "standalone",
  "background_color": "#ffffff",
  "lang": "en"
}